{"data":[{"id":52,"title":"Extra $48 Discount for Starter Plans","code":null,"ends_at":null,"merchant_id":14,"coupon_type":"deal","description":"Save $48 with annual billing on the Starter plan. Just select annual subscription; no coupon necessary.","type_text":null,"show_proof":false,"proof_image_url":null,"is_editor":false,"click_count":489,"merchant":{"slug":"n8n-coupons","name":"N8N","logo_url":"https://gtqghwfnbzqzwkkitbet.supabase.co/storage/v1/object/public/merchant-images/merchants/2025/09/1758117304280-n8n-coupons.png"},"merchant_name":"N8N"},{"id":51,"title":"Get $10–$100 Off Sitewide","code":null,"ends_at":null,"merchant_id":14,"coupon_type":"deal","description":"Save up to $100 off any annual N8N plan using rotating promo links. Offers updated weekly—check back for new savings.","type_text":null,"show_proof":false,"proof_image_url":null,"is_editor":false,"click_count":515,"merchant":{"slug":"n8n-coupons","name":"N8N","logo_url":"https://gtqghwfnbzqzwkkitbet.supabase.co/storage/v1/object/public/merchant-images/merchants/2025/09/1758117304280-n8n-coupons.png"},"merchant_name":"N8N"},{"id":50,"title":"Freemium Forever – Start Free","code":null,"ends_at":null,"merchant_id":14,"coupon_type":"deal","description":"Access N8N’s Freemium plan at no cost. How: Sign up, verify your email, and select Freemium in the dashboard. No payment required. Includes core features—upgrade anytime.","type_text":null,"show_proof":false,"proof_image_url":null,"is_editor":false,"click_count":446,"merchant":{"slug":"n8n-coupons","name":"N8N","logo_url":"https://gtqghwfnbzqzwkkitbet.supabase.co/storage/v1/object/public/merchant-images/merchants/2025/09/1758117304280-n8n-coupons.png"},"merchant_name":"N8N"},{"id":49,"title":"Save $120 Instantly on Pro Yearly","code":null,"ends_at":null,"merchant_id":14,"coupon_type":"deal","description":"Take $120 off your first year on the N8N Pro annual plan. No code needed—deal auto-activates at checkout. Steps: Select Pro plan, choose “Yearly Billing,” and proceed. Discount reflected before payment. Scarcity: Only for new subscribers. Offer expires soon.","type_text":null,"show_proof":false,"proof_image_url":null,"is_editor":true,"click_count":427,"merchant":{"slug":"n8n-coupons","name":"N8N","logo_url":"https://gtqghwfnbzqzwkkitbet.supabase.co/storage/v1/object/public/merchant-images/merchants/2025/09/1758117304280-n8n-coupons.png"},"merchant_name":"N8N"},{"id":45,"title":"Unlock 30% Off Any Plan","code":null,"ends_at":null,"merchant_id":14,"coupon_type":"deal","description":"Get 30% off any N8N subscription for 12 months using the code below.Code: (Auto-applied via trusted coupon link)Usage: Visit the checkout page, select your plan, and the discount appears instantly. Hurry: Limited to first 500 redemptions, ends This 2025.","type_text":null,"show_proof":false,"proof_image_url":null,"is_editor":true,"click_count":404,"merchant":{"slug":"n8n-coupons","name":"N8N","logo_url":"https://gtqghwfnbzqzwkkitbet.supabase.co/storage/v1/object/public/merchant-images/merchants/2025/09/1758117304280-n8n-coupons.png"},"merchant_name":"N8N"},{"id":44,"title":"Paperlike Flash Deal: 25% Off Storewide","code":null,"ends_at":null,"merchant_id":13,"coupon_type":"deal","description":"For newsletter subscribers, Paperlike sometimes drops storewide 25% coupons.\r\nFlash deals last only 72 hours—check emails and blog updates.","type_text":null,"show_proof":false,"proof_image_url":null,"is_editor":false,"click_count":406,"merchant":{"slug":"paperlike-coupons","name":"Paperlike","logo_url":"https://gtqghwfnbzqzwkkitbet.supabase.co/storage/v1/object/public/merchant-images/merchants/2025/09/1758026140555-paperlike.png"},"merchant_name":"Paperlike"},{"id":43,"title":"Paperlike 50% Off","code":null,"ends_at":null,"merchant_id":13,"coupon_type":"deal","description":"Buy any two eligible Paperlike accessories, instantly save 50% on the second item.\r\nPerfect for gifting, valid through seasonal promos.","type_text":null,"show_proof":false,"proof_image_url":null,"is_editor":false,"click_count":370,"merchant":{"slug":"paperlike-coupons","name":"Paperlike","logo_url":"https://gtqghwfnbzqzwkkitbet.supabase.co/storage/v1/object/public/merchant-images/merchants/2025/09/1758026140555-paperlike.png"},"merchant_name":"Paperlike"},{"id":42,"title":"Paperlike Student Discount","code":null,"ends_at":null,"merchant_id":13,"coupon_type":"deal","description":"Verified students and educators get 10% off their Paperlike purchase. Upload ID for activation.\r\n","type_text":null,"show_proof":false,"proof_image_url":null,"is_editor":false,"click_count":396,"merchant":{"slug":"paperlike-coupons","name":"Paperlike","logo_url":"https://gtqghwfnbzqzwkkitbet.supabase.co/storage/v1/object/public/merchant-images/merchants/2025/09/1758026140555-paperlike.png"},"merchant_name":"Paperlike"}],"meta":{"total":48,"page":1,"limit":8,"canonical":{},"prev":null,"next":"https://handpickedclient.vercel.app/coupons?type=all&status=active&sort=latest&locale=en&page=2&limit=8","total_pages":6,"jsonld":{"offers":[]}}}