{"data":[{"id":14,"slug":"n8n-coupons","name":"N8N","logo_url":"https://gtqghwfnbzqzwkkitbet.supabase.co/storage/v1/object/public/merchant-images/merchants/2025/09/1758117304280-n8n-coupons.png","stats":{"active_coupons":5}},{"id":13,"slug":"paperlike-coupons","name":"Paperlike","logo_url":"https://gtqghwfnbzqzwkkitbet.supabase.co/storage/v1/object/public/merchant-images/merchants/2025/09/1758026140555-paperlike.png","stats":{"active_coupons":3}},{"id":12,"slug":"ellie-coupons","name":"Ellie","logo_url":"https://gtqghwfnbzqzwkkitbet.supabase.co/storage/v1/object/public/merchant-images/merchants/2025/09/1757494783160-ellie.png","stats":{"active_coupons":3}},{"id":11,"slug":"swagtron-coupons","name":"Swagtron","logo_url":"https://gtqghwfnbzqzwkkitbet.supabase.co/storage/v1/object/public/merchant-images/merchants/2025/09/1757494823335-swagtron.png","stats":{"active_coupons":0}},{"id":10,"slug":"collins-coupons","name":"Collins","logo_url":"https://gtqghwfnbzqzwkkitbet.supabase.co/storage/v1/object/public/merchant-images/merchants/2025/09/1757501825672-collins.png","stats":{"active_coupons":6}},{"id":9,"slug":"bark-box-coupons","name":"Bark Box","logo_url":"https://gtqghwfnbzqzwkkitbet.supabase.co/storage/v1/object/public/merchant-images/merchants/2025/09/1757501853415-barkbox.png","stats":{"active_coupons":5}},{"id":8,"slug":"dolce-vita-coupons","name":"Dolce Vita","logo_url":"https://gtqghwfnbzqzwkkitbet.supabase.co/storage/v1/object/public/merchant-images/merchants/2025/09/1757501874720-dolcevita.png","stats":{"active_coupons":5}},{"id":7,"slug":"flo-health-coupons","name":"Flo Health","logo_url":"https://gtqghwfnbzqzwkkitbet.supabase.co/storage/v1/object/public/merchant-images/merchants/2025/09/1757501895931-flo-health.png","stats":{"active_coupons":3}}],"meta":{"page":1,"limit":8,"total":10,"canonical":"https://handpickedclient.vercel.app/public/v1/stores?sort=newest&limit=8","prev":null,"next":"https://handpickedclient.vercel.app/stores?sort=newest&locale=en&page=2&limit=8","total_pages":2}}